\contentsline {chapter}{はじめに}{2}
\contentsline {chapter}{\numberline {第1章}たいとるてきな}{3}
\contentsline {section}{\numberline {1.1}SECCON CTF 2014 オンライン予選「このパケットを解析せよ（ネットワーク 100）」}{3}
\contentsline {chapter}{参考文献}{3}
