\relax 
\@writefile{toc}{\contentsline {chapter}{はじめに}{2}}
\@writefile{toc}{\contentsline {chapter}{\numberline {第1章}たいとるてきな}{3}}
\@writefile{lof}{\addvspace {10\p@ }}
\@writefile{lot}{\addvspace {10\p@ }}
\@writefile{toc}{\contentsline {section}{\numberline {1.1}SECCON CTF 2014 オンライン予選「このパケットを解析せよ（ネットワーク 100）」}{3}}
\@writefile{lof}{\contentsline {figure}{\numberline {1.1}{\ignorespaces アクセスした画面}}{3}}
\newlabel{fig:cite1}{{1.1}{3}}
\@writefile{toc}{\contentsline {chapter}{参考文献}{3}}
